[
	{ "s": "4", "p": [15, 7, 16, 10, 14, 22, 17, 20, 6, 25, 24, 23, 21, 19, 18, 13, 12, 11, 26, 9, 8, 27] },
	{ "s": "4.1", "p": [7, 24, 23, 22, 21, 20, 19, 18, 17, 16, 15, 14, 13, 12, 11, 10, 9, 8, 6] },
	{ "s": "4.1.1", "p": [8, 7] },
	{ "s": "4.1.2", "p": [9, 7] },
	{ "s": "4.1.3", "p": [10, 14, 13, 12, 11, 7] },
	{ "s": "4.1.3.1", "p": [11, 10] },
	{ "s": "4.1.3.2", "p": [12, 10] },
	{ "s": "4.1.3.3", "p": [13, 10] },
	{ "s": "4.1.3.4", "p": [14, 10] },
	{ "s": "4.1.4", "p": [15, 16, 7] },
	{ "s": "4.1.4.1", "p": [16, 15] },
	{ "s": "4.1.5", "p": [17, 19, 18, 7] },
	{ "s": "4.1.5.1", "p": [18, 17] },
	{ "s": "4.1.5.2", "p": [19, 17] },
	{ "s": "4.1.6", "p": [20, 21, 7] },
	{ "s": "4.1.6.1", "p": [21, 20] },
	{ "s": "4.1.7", "p": [22, 24, 23, 7] },
	{ "s": "4.1.7.1", "p": [23, 22] },
	{ "s": "4.1.7.2", "p": [24, 22] },
	{ "s": "4.2", "p": [25, 26, 6] },
	{ "s": "4.2.1", "p": [26, 25] },
	{ "s": "4.3", "p": [27, 6] }
]